[
  {
    "label": "facebook",
    "permalink": "/repoaula_2_complex/blog/tags/facebook",
    "count": 1
  },
  {
    "label": "hello",
    "permalink": "/repoaula_2_complex/blog/tags/hello",
    "count": 2
  },
  {
    "label": "docusaurus",
    "permalink": "/repoaula_2_complex/blog/tags/docusaurus",
    "count": 4
  },
  {
    "label": "hola",
    "permalink": "/repoaula_2_complex/blog/tags/hola",
    "count": 1
  }
]